laboratorio_3/Battleship/simulation/modelsim/dump.vcd
$date
	Wed Apr 03 10:26:48 2024
$end
$version
	ModelSim Version 2020.1
$end
$timescale
	1ps
$end

$scope module battleship_tb $end

$scope module game $end
$var wire 1 ! clk $end
$var wire 1 " reset $end
$var wire 1 # attack $end
$var wire 1 $ izquierda $end
$var wire 1 % arriba $end
$var wire 1 & abajo $end
$var wire 1 ' derecha $end
$var wire 1 ( barcos [2] $end
$var wire 1 ) barcos [1] $end
$var wire 1 * barcos [0] $end
$var wire 1 + en $end
$var reg 1 , clk_delay $end
$var reg 3 - barcos_put [2:0] $end
$var reg 1 . to $end
$var reg 3 / hp_pc [2:0] $end
$var reg 3 0 hp_player [2:0] $end
$var reg 1 1 en_cont_seg $end
$var reg 1 2 en_put_barcos $end
$var reg 1 3 en_player_attack $end
$var reg 1 4 en_move $end
$var integer 32 5 total_seg $end
$var reg 3 6 posicion_x [2:0] $end
$var reg 3 7 posicion_y [2:0] $end

$scope module new_clk $end
$var wire 1 ! clk $end
$var reg 1 8 clk_delay $end
$var integer 32 9 count $end
$var reg 1 : temp $end
$upscope $end

$scope module maquina $end
$var wire 1 ; clk $end
$var wire 1 " reset $end
$var wire 1 < attack $end
$var wire 1 = barcos_put [2] $end
$var wire 1 > barcos_put [1] $end
$var wire 1 ? barcos_put [0] $end
$var wire 1 @ to $end
$var wire 1 A hp_pc [2] $end
$var wire 1 B hp_pc [1] $end
$var wire 1 C hp_pc [0] $end
$var wire 1 D hp_player [2] $end
$var wire 1 E hp_player [1] $end
$var wire 1 F hp_player [0] $end
$var reg 1 G en_cont_seg $end
$var reg 1 H en_put_barcos $end
$var reg 1 I en_player_attack $end
$var reg 1 J en_move $end
$var reg 3 K estado [2:0] $end
$var reg 3 L siguiente_estado [2:0] $end
$upscope $end

$scope module contador $end
$var wire 1 M clk $end
$var wire 1 N en_cont_seg $end
$var integer 32 O total_seg $end
$var integer 32 P temp_seg $end
$upscope $end

$scope module comparar $end
$var integer 32 Q total_seg $end
$var wire 1 R to $end
$upscope $end

$scope module move $end
$var wire 1 S izquierda $end
$var wire 1 T arriba $end
$var wire 1 U abajo $end
$var wire 1 V derecha $end
$var wire 1 W en_move $end
$var reg 1 X posicion_x $end
$var reg 1 Y posicion_y $end
$var reg 3 Z temp_x [2:0] $end
$var reg 3 [ temp_y [2:0] $end
$upscope $end
$upscope $end
$upscope $end
$enddefinitions $end
#0
$dumpvars
0,
b0 -
0.
b1 /
b1 0
01
02
03
04
b0 6
b0 7
08
0:
0G
0H
0I
0J
b0 K
b0 L
0X
0Y
b10 Z
b10 [
b0 5
b0 9
b0 O
b0 P
b0 Q
0!
1"
x#
0$
0%
0&
0'
x*
x)
x(
1+
1V
1U
1T
1S
x<
0;
0?
0>
0=
0@
1C
0B
0A
1F
0E
0D
0M
0N
0R
0W
$end
#10
1#
1!
0"
0<
b1 9
#20
0!
#30
1!
b10 9
#40
0!
#50
1!
b11 9
#60
0!
#70
1!
b100 9
#80
0!
#90
1!
b101 9
#100
0!
#110
1!
b0 9
1:
18
1,
1M
1;
#120
0#
0!
1<
b1 L
#130
1!
b1 9
#140
0!
#150
1!
b10 9
#160
0!
#170
1!
b11 9
#180
0!
#190
1!
b100 9
#200
0!
#210
1!
b101 9
#220
0!
#230
1!
b0 9
0:
08
0,
0M
0;
#240
0!
#250
1!
b1 9
#260
0!
#270
1!
b10 9
#280
0!
#290
1!
b11 9
#300
0!
#310
1!
b100 9
#320
0!
#330
1!
b101 9
#340
0!
#350
1!
b0 9
1:
18
1,
1M
1;
b1 K
1H
1J
14
12
1W
b1 Z
b10 L
1X
b1 6
#360
0!
#370
1!
b1 9
#380
0!
#390
1!
b10 9
#400
0!
#410
1!
b11 9
#420
0!
#430
1!
b100 9
#440
0!
#450
1!
b101 9
#460
0!
#470
1!
b0 9
0:
08
0,
0M
0;
#480
0!
#490
1!
b1 9
#500
0!
#510
1!
b10 9
#520
0!
#530
1!
b11 9
#540
0!
#550
1!
b100 9
#560
0!
#570
1!
b101 9
#580
0!
#590
1!
b0 9
1:
18
1,
1M
1;
b10 K
1G
0H
1I
13
02
11
1N
b100 L
#600
0!
#610
1!
b1 9
#620
0!
#630
1!
b10 9
#640
0!
#650
1!
b11 9
#660
0!
#670
1!
b100 9
#680
0!
#690
1!
b101 9
#700
0!
#710
1!
b0 9
0:
08
0,
0M
0;
#720
0!
#730
1!
b1 9
#740
0!
#750
1!
b10 9
#760
0!
#770
1!
b11 9
#780
0!
#790
1!
b100 9
#800
0!
#810
1!
b101 9
#820
0!
#830
1!
b0 9
1:
18
1,
1M
1;
b100 K
b1 P
b1 O
0G
0I
0J
04
03
01
b1 5
b1 Q
0N
0W
b10 Z
b101 L
0X
b0 6
#840
0!
#850
1!
b1 9
#860
0!
#870
1!
b10 9
#880
0!
#890
1!
b11 9
#900
0!
#910
1!
b100 9
#920
0!
#930
1!
b101 9
#940
0!
#950
1!
b0 9
0:
08
0,
0M
0;
#960
0!
#970
1!
b1 9
#980
0!
#990
1!
b10 9
#1000
0!
#1010
1!
b11 9
#1020
0!
#1030
1!
b100 9
#1040
0!
#1050
1!
b101 9
#1060
0!
#1070
1!
b0 9
1:
18
1,
1M
1;
b101 K
b0 P
b0 O
b0 5
b0 Q
b110 L
#1080
0!
#1090
1!
b1 9
#1100
0!
#1110
1!
b10 9
#1120
0!
#1130
1!
b11 9
#1140
0!
#1150
1!
b100 9
#1160
0!
#1170
1!
b101 9
#1180
0!
#1190
1!
b0 9
0:
08
0,
0M
0;
#1200
0!
#1210
1!
b1 9
#1220
0!
#1230
1!
b10 9
#1240
0!
#1250
1!
b11 9
#1260
0!
#1270
1!
b100 9
#1280
0!
#1290
1!
b101 9
#1300
0!
#1310
1!
b0 9
1:
18
1,
1M
1;
b110 K
b10 L
#1320
0!
#1330
1!
b1 9
#1340
0!
#1350
1!
b10 9
#1360
0!
#1370
1!
b11 9
#1380
0!
#1390
1!
b100 9
#1400
0!
#1410
1!
b101 9
#1420
0!
#1430
1!
b0 9
0:
08
0,
0M
0;
#1440
0!
#1450
1!
b1 9
#1460
0!
#1470
1!
b10 9
#1480
0!
#1490
1!
b11 9
#1500
0!
#1510
1!
b100 9
#1520
0!
#1530
1!
b101 9
#1540
0!
#1550
1!
b0 9
1:
18
1,
1M
1;
b10 K
1G
1I
1J
14
13
11
1N
1W
b1 Z
b100 L
1X
b1 6
#1560
0!
#1570
1!
b1 9
#1580
0!
#1590
1!
b10 9
#1600
0!
#1610
1!
b11 9
#1620
0!
#1630
1!
b100 9
#1640
0!
#1650
1!
b101 9
#1660
0!
#1670
1!
b0 9
0:
08
0,
0M
0;
#1680
0!
#1690
1!
b1 9
#1700
0!
#1710
1!
b10 9
#1720
0!
#1730
1!
b11 9
#1740
0!
#1750
1!
b100 9
#1760
0!
#1770
1!
b101 9
#1780
0!
#1790
1!
b0 9
1:
18
1,
1M
1;
b100 K
b1 P
b1 O
0G
0I
0J
04
03
01
b1 5
b1 Q
0N
0W
b10 Z
b101 L
0X
b0 6
#1800
0!
#1810
1!
b1 9
#1820
0!
#1830
1!
b10 9
#1840
0!
#1850
1!
b11 9
#1860
0!
#1870
1!
b100 9
#1880
0!
#1890
1!
b101 9
#1900
0!
#1910
1!
b0 9
0:
08
0,
0M
0;
#1920
0!
#1930
1!
b1 9
#1940
0!
#1950
1!
b10 9
#1960
0!
#1970
1!
b11 9
#1980
0!
#1990
1!
b100 9
#2000
0!
#2010
1!
b101 9
#2020
0!
#2030
1!
b0 9
1:
18
1,
1M
1;
b101 K
b0 P
b0 O
b0 5
b0 Q
b110 L
#2040
0!
#2050
1!
b1 9
#2060
0!
#2070
1!
b10 9
#2080
0!
#2090
1!
b11 9
#2100
0!
#2110
1!
b100 9
#2120
0!
#2130
1!
b101 9
#2140
0!
#2150
1!
b0 9
0:
08
0,
0M
0;
#2160
0!
#2170
1!
b1 9
#2180
0!
#2190
1!
b10 9
#2200
0!
#2210
1!
b11 9
#2220
0!
#2230
1!
b100 9
#2240
0!
#2250
1!
b101 9
#2260
0!
#2270
1!
b0 9
1:
18
1,
1M
1;
b110 K
b10 L
#2280
0!
#2290
1!
b1 9
#2300
0!
#2310
1!
b10 9
#2320
0!
#2330
1!
b11 9
#2340
0!
#2350
1!
b100 9
#2360
0!
#2370
1!
b101 9
#2380
0!
#2390
1!
b0 9
0:
08
0,
0M
0;
#2400
0!
#2410
1!
b1 9
#2420
0!
#2430
1!
b10 9
#2440
0!
#2450
1!
b11 9
#2460
0!
#2470
1!
b100 9
#2480
0!
#2490
1!
b101 9
#2500
0!
#2510
1!
b0 9
1:
18
1,
1M
1;
b10 K
1G
1I
1J
14
13
11
1N
1W
b1 Z
b100 L
1X
b1 6
#2520
0!
#2530
1!
b1 9
#2540
0!
#2550
1!
b10 9
#2560
0!
#2570
1!
b11 9
#2580
0!
#2590
1!
b100 9
#2600
0!
#2610
1!
b101 9
#2620
0!
#2630
1!
b0 9
0:
08
0,
0M
0;
#2640
0!
#2650
1!
b1 9
#2660
0!
#2670
1!
b10 9
#2680
0!
#2690
1!
b11 9
#2700
0!
#2710
1!
b100 9
#2720
0!
#2730
1!
b101 9
#2740
0!
#2750
1!
b0 9
1:
18
1,
1M
1;
b100 K
b1 P
b1 O
0G
0I
0J
04
03
01
b1 5
b1 Q
0N
0W
b10 Z
b101 L
0X
b0 6
#2760
0!
#2770
1!
b1 9
#2780
0!
#2790
1!
b10 9
#2800
0!
#2810
1!
b11 9
#2820
0!
#2830
1!
b100 9
#2840
0!
#2850
1!
b101 9
#2860
0!
#2870
1!
b0 9
0:
08
0,
0M
0;
#2880
0!
#2890
1!
b1 9
#2900
0!
#2910
1!
b10 9
#2920
0!
#2930
1!
b11 9
#2940
0!
#2950
1!
b100 9
#2960
0!
#2970
1!
b101 9
#2980
0!
#2990
1!
b0 9
1:
18
1,
1M
1;
b101 K
b0 P
b0 O
b0 5
b0 Q
b110 L
#3000
0!
#3010
1!
b1 9
#3020
0!
#3030
1!
b10 9
#3040
0!
#3050
1!
b11 9
#3060
0!
#3070
1!
b100 9
#3080
0!
#3090
1!
b101 9
#3100
0!
#3110
1!
b0 9
0:
08
0,
0M
0;
#3120
0!
#3130
1!
b1 9
#3140
0!
#3150
1!
b10 9
#3160
0!
#3170
1!
b11 9
#3180
0!
#3190
1!
b100 9
#3200
0!
#3210
1!
b101 9
#3220
0!
#3230
1!
b0 9
1:
18
1,
1M
1;
b110 K
b10 L
#3240
0!
#3250
1!
b1 9
#3260
0!
#3270
1!
b10 9
#3280
0!
#3290
1!
b11 9
#3300
0!
#3310
1!
b100 9
#3320
0!
#3330
1!
b101 9
#3340
0!
#3350
1!
b0 9
0:
08
0,
0M
0;
#3360
0!
#3370
1!
b1 9
#3380
0!
#3390
1!
b10 9
#3400
0!
#3410
1!
b11 9
#3420
0!
#3430
1!
b100 9
#3440
0!
#3450
1!
b101 9
#3460
0!
#3470
1!
b0 9
1:
18
1,
1M
1;
b10 K
1G
1I
1J
14
13
11
1N
1W
b1 Z
b100 L
1X
b1 6
#3480
0!
#3490
1!
b1 9
#3500
0!
#3510
1!
b10 9
#3520
0!
#3530
1!
b11 9
#3540
0!
#3550
1!
b100 9
#3560
0!
#3570
1!
b101 9
#3580
0!
#3590
1!
b0 9
0:
08
0,
0M
0;
#3600
0!
#3610
1!
b1 9
#3620
0!
#3630
1!
b10 9
#3640
0!
#3650
1!
b11 9
#3660
0!
#3670
1!
b100 9
#3680
0!
#3690
1!
b101 9
#3700
0!
#3710
1!
b0 9
1:
18
1,
1M
1;
b100 K
b1 P
b1 O
0G
0I
0J
04
03
01
b1 5
b1 Q
0N
0W
b10 Z
b101 L
0X
b0 6
#3720
0!
#3730
1!
b1 9
#3740
0!
#3750
1!
b10 9
#3760
0!
#3770
1!
b11 9
#3780
0!
#3790
1!
b100 9
#3800
0!
#3810
1!
b101 9
#3820
0!
#3830
1!
b0 9
0:
08
0,
0M
0;
#3840
0!
#3850
1!
b1 9
#3860
0!
#3870
1!
b10 9
#3880
0!
#3890
1!
b11 9
#3900
0!
#3910
1!
b100 9
#3920
0!
#3930
1!
b101 9
#3940
0!
#3950
1!
b0 9
1:
18
1,
1M
1;
b101 K
b0 P
b0 O
b0 5
b0 Q
b110 L
#3960
0!
#3970
1!
b1 9
#3980
0!
#3990
1!
b10 9
#4000
0!
#4010
1!
b11 9
#4020
0!
#4030
1!
b100 9
#4040
0!
#4050
1!
b101 9
#4060
0!
#4070
1!
b0 9
0:
08
0,
0M
0;
#4080
0!
#4090
1!
b1 9
#4100
0!
#4110
1!
b10 9
#4120
0!
#4130
1!
b11 9
#4140
0!
#4150
1!
b100 9
#4160
0!
#4170
1!
b101 9
#4180
0!
#4190
1!
b0 9
1:
18
1,
1M
1;
b110 K
b10 L
#4200
0!
#4210
1!
b1 9
#4220
0!
#4230
1!
b10 9
#4240
0!
#4250
1!
b11 9
#4260
0!
#4270
1!
b100 9
#4280
0!
#4290
1!
b101 9
#4300
0!
#4310
1!
b0 9
0:
08
0,
0M
0;
#4320
0!
#4330
1!
b1 9
#4340
0!
#4350
1!
b10 9
#4360
0!
#4370
1!
b11 9
#4380
0!
#4390
1!
b100 9
#4400
0!
#4410
1!
b101 9
#4420
0!
#4430
1!
b0 9
1:
18
1,
1M
1;
b10 K
1G
1I
1J
14
13
11
1N
1W
b1 Z
b100 L
1X
b1 6
#4440
0!
#4450
1!
b1 9
#4460
0!
#4470
1!
b10 9
#4480
0!
#4490
1!
b11 9
#4500
0!
#4510
1!
b100 9
#4520
0!
#4530
1!
b101 9
#4540
0!
#4550
1!
b0 9
0:
08
0,
0M
0;
#4560
0!
#4570
1!
b1 9
#4580
0!
#4590
1!
b10 9
#4600
0!
#4610
1!
b11 9
#4620
0!
#4630
1!
b100 9
#4640
0!
#4650
1!
b101 9
#4660
0!
#4670
1!
b0 9
1:
18
1,
1M
1;
b100 K
b1 P
b1 O
0G
0I
0J
04
03
01
b1 5
b1 Q
0N
0W
b10 Z
b101 L
0X
b0 6
#4680
0!
#4690
1!
b1 9
#4700
0!
#4710
1!
b10 9
#4720
0!
#4730
1!
b11 9
#4740
0!
#4750
1!
b100 9
#4760
0!
#4770
1!
b101 9
#4780
0!
#4790
1!
b0 9
0:
08
0,
0M
0;
#4800
0!
#4810
1!
b1 9
#4820
0!
#4830
1!
b10 9
#4840
0!
#4850
1!
b11 9
#4860
0!
#4870
1!
b100 9
#4880
0!
#4890
1!
b101 9
#4900
0!
#4910
1!
b0 9
1:
18
1,
1M
1;
b101 K
b0 P
b0 O
b0 5
b0 Q
b110 L
#4920
0!
#4930
1!
b1 9
#4940
0!
#4950
1!
b10 9
#4960
0!
#4970
1!
b11 9
#4980
0!
#4990
1!
b100 9
#5000
0!
#5010
1!
b101 9
#5020
0!
#5030
1!
b0 9
0:
08
0,
0M
0;
#5040
0!
#5050
1!
b1 9
#5060
0!
#5070
1!
b10 9
#5080
0!
#5090
1!
b11 9
#5100
0!
#5110
1!
b100 9
